{
  "project_info": {
    "project_number": "589947839129",
    "firebase_url": "https://transpot-app.firebaseio.com",
    "project_id": "transpot-app",
    "storage_bucket": "transpot-app.appspot.com"
  },
  "client": [
    {
      "client_info": {
        "mobilesdk_app_id": "1:589947839129:android:27426edbf1472e90",
        "android_client_info": {
          "package_name": "com.chipcerio.transpot"
        }
      },
      "oauth_client": [
        {
          "client_id": "589947839129-ndajsnqvj03a9uqpqvojqecflusv6b9g.apps.googleusercontent.com",
          "client_type": 1,
          "android_info": {
            "package_name": "com.chipcerio.transpot",
            "certificate_hash": "9CCE7AD16CB1A3EBA5C8EEA62721302F8EA6ABB7"
          }
        },
        {
          "client_id": "589947839129-3cnlto9tbhpoeo92go3dlg2vvd3m9b8u.apps.googleusercontent.com",
          "client_type": 3
        }
      ],
      "api_key": [
        {
          "current_key": "AIzaSyDpf_DfkQE57xLbvhiTNY07pEAoZutIUro"
        }
      ],
      "services": {
        "analytics_service": {
          "status": 1
        },
        "appinvite_service": {
          "status": 2,
          "other_platform_oauth_client": [
            {
              "client_id": "589947839129-3cnlto9tbhpoeo92go3dlg2vvd3m9b8u.apps.googleusercontent.com",
              "client_type": 3
            }
          ]
        },
        "ads_service": {
          "status": 2
        }
      }
    }
  ],
  "configuration_version": "1"
}